// Jest Snapshot v1, https://goo.gl/fbAQLP

exports[`renders correctly should render playAudio as expected 1`] = `
ShallowWrapper {
  "complexSelector": ComplexSelector {
    "buildPredicate": [Function],
    "childrenOfNode": [Function],
    "findWhereUnwrapped": [Function],
  },
  "length": 1,
  "node": <playAudio />,
  "nodes": Array [
    <playAudio />,
  ],
  "options": Object {},
  "renderer": ReactShallowRenderer {
    "_context": null,
    "_element": null,
    "_instance": null,
    "_newState": null,
    "_rendered": null,
    "_rendering": false,
    "_updater": Updater {
      "_renderer": [Circular],
    },
    "getRenderOutput": [Function],
    "render": [Function],
  },
  "root": [Circular],
  "unrendered": <playAudio />,
}
`;

exports[`renders correctly should render scrabbleScore as expected 1`] = `
ShallowWrapper {
  "complexSelector": ComplexSelector {
    "buildPredicate": [Function],
    "childrenOfNode": [Function],
    "findWhereUnwrapped": [Function],
  },
  "length": 1,
  "node": <scrabbleScore />,
  "nodes": Array [
    <scrabbleScore />,
  ],
  "options": Object {},
  "renderer": ReactShallowRenderer {
    "_context": null,
    "_element": null,
    "_instance": null,
    "_newState": null,
    "_rendered": null,
    "_rendering": false,
    "_updater": Updater {
      "_renderer": [Circular],
    },
    "getRenderOutput": [Function],
    "render": [Function],
  },
  "root": [Circular],
  "unrendered": <scrabbleScore />,
}
`;
