// Jest Snapshot v1, https://goo.gl/fbAQLP

exports[`Testing SearchResult component renders as expected 1`] = `
ShallowWrapper {
  "complexSelector": ComplexSelector {
    "buildPredicate": [Function],
    "childrenOfNode": [Function],
    "findWhereUnwrapped": [Function],
  },
  "length": 1,
  "node": <View
    style={
        Object {
            "alignSelf": "stretch",
            "flex": 1,
            "justifyContent": "flex-start",
          }
    }
>
    <View>
        <Spinner
            cancelable={false}
            color="white"
            overlayColor="rgba(0, 0, 0, 0.25)"
            size="large"
            textContent="loading..."
            textStyle={
                Object {
                    "color": "#FFF",
                  }
            }
            visible={true}
        />
    </View>
</View>,
  "nodes": Array [
    <View
      style={
            Object {
                  "alignSelf": "stretch",
                  "flex": 1,
                  "justifyContent": "flex-start",
                }
      }
>
      <View>
            <Spinner
                  cancelable={false}
                  color="white"
                  overlayColor="rgba(0, 0, 0, 0.25)"
                  size="large"
                  textContent="loading..."
                  textStyle={
                        Object {
                              "color": "#FFF",
                            }
                  }
                  visible={true}
            />
      </View>
</View>,
  ],
  "options": Object {},
  "renderer": ReactShallowRenderer {
    "_context": Object {},
    "_element": <SearchResult
      settings={
            Object {
                  "ads": false,
                  "anagramsVisible": true,
                  "antonymsVisible": true,
                  "examplesVisible": true,
                  "hideEmptyPages": true,
                  "historyDisabled": false,
                  "pagingEnabled": true,
                  "rhymesVisible": true,
                  "similarVisible": true,
                  "sourceIsWordnik": false,
                  "synonymsVisible": true,
                  "usageStats": true,
                }
      }
      word="foobar"
/>,
    "_instance": SearchResult {
      "callbacks": Object {
        "audioURI": undefined,
        "height": undefined,
        "lowercaseWord": "foobar",
        "onePageOfData": NaN,
        "pagingEnabled": true,
        "score": 0,
        "settings": undefined,
        "width": undefined,
        "word": "foobar",
      },
      "context": Object {},
      "props": Object {
        "settings": Object {
          "ads": false,
          "anagramsVisible": true,
          "antonymsVisible": true,
          "examplesVisible": true,
          "hideEmptyPages": true,
          "historyDisabled": false,
          "pagingEnabled": true,
          "rhymesVisible": true,
          "similarVisible": true,
          "sourceIsWordnik": false,
          "synonymsVisible": true,
          "usageStats": true,
        },
        "word": "foobar",
      },
      "refs": Object {},
      "state": Object {
        "anagrams": Array [],
        "antonyms": Array [],
        "definitions": Array [],
        "examples": Array [],
        "rhymes": Array [],
        "similar": Array [],
        "synonyms": Array [],
      },
      "updater": Updater {
        "_renderer": [Circular],
      },
    },
    "_newState": null,
    "_rendered": <View
      style={
            Object {
                  "alignSelf": "stretch",
                  "flex": 1,
                  "justifyContent": "flex-start",
                }
      }
>
      <View>
            <Spinner
                  cancelable={false}
                  color="white"
                  overlayColor="rgba(0, 0, 0, 0.25)"
                  size="large"
                  textContent="loading..."
                  textStyle={
                        Object {
                              "color": "#FFF",
                            }
                  }
                  visible={true}
            />
      </View>
</View>,
    "_rendering": false,
    "_updater": Updater {
      "_renderer": [Circular],
    },
    "getRenderOutput": [Function],
    "render": [Function],
  },
  "root": [Circular],
  "unrendered": <SearchResult
    settings={
        Object {
            "ads": false,
            "anagramsVisible": true,
            "antonymsVisible": true,
            "examplesVisible": true,
            "hideEmptyPages": true,
            "historyDisabled": false,
            "pagingEnabled": true,
            "rhymesVisible": true,
            "similarVisible": true,
            "sourceIsWordnik": false,
            "synonymsVisible": true,
            "usageStats": true,
          }
    }
    word="foobar"
/>,
}
`;
